    linkedin_data <- read.csv("/Users/yuyichen/Desktop/Winter 2024/ORGB - 672/2024-ona-assignments/Connections_Yichen.csv")

    # 1. Count of contacts by current employer
    employer_counts <- linkedin_data %>%
      group_by(Company) %>%
      summarise(Count = n())

    # Print the counts
    print(employer_counts)

    ## # A tibble: 160 × 2
    ##    Company            Count
    ##    <chr>              <int>
    ##  1 ""                     6
    ##  2 ".online business"     1
    ##  3 "5Y Capital"           1
    ##  4 "ADP"                  1
    ##  5 "ALDO Group"           2
    ##  6 "ALTEN"                1
    ##  7 "Acosta"               1
    ##  8 "Air Transat"          3
    ##  9 "Al Baladi Group"      1
    ## 10 "Allstate Canada"      1
    ## # ℹ 150 more rows
…
